{
  "endpointAddress" : "http://services.odata.org/V4/Northwind/Northwind.svc/",
  "method" : "GET",
  "contentType" : "text/xml",
  "requestBody" : "",
  "authType" : "NONE",
  "headers" : { },
  "queryParams" : { },
  "sampleRestResponse" : {
    "responseBody" : "{\"@odata.context\":\"http://services.odata.org/V4/Northwind/Northwind.svc/$metadata\",\"value\":[{\"name\":\"Categories\",\"kind\":\"EntitySet\",\"url\":\"Categories\"},{\"name\":\"CustomerDemographics\",\"kind\":\"EntitySet\",\"url\":\"CustomerDemographics\"},{\"name\":\"Customers\",\"kind\":\"EntitySet\",\"url\":\"Customers\"},{\"name\":\"Employees\",\"kind\":\"EntitySet\",\"url\":\"Employees\"},{\"name\":\"Order_Details\",\"kind\":\"EntitySet\",\"url\":\"Order_Details\"},{\"name\":\"Orders\",\"kind\":\"EntitySet\",\"url\":\"Orders\"},{\"name\":\"Products\",\"kind\":\"EntitySet\",\"url\":\"Products\"},{\"name\":\"Regions\",\"kind\":\"EntitySet\",\"url\":\"Regions\"},{\"name\":\"Shippers\",\"kind\":\"EntitySet\",\"url\":\"Shippers\"},{\"name\":\"Suppliers\",\"kind\":\"EntitySet\",\"url\":\"Suppliers\"},{\"name\":\"Territories\",\"kind\":\"EntitySet\",\"url\":\"Territories\"},{\"name\":\"Alphabetical_list_of_products\",\"kind\":\"EntitySet\",\"url\":\"Alphabetical_list_of_products\"},{\"name\":\"Category_Sales_for_1997\",\"kind\":\"EntitySet\",\"url\":\"Category_Sales_for_1997\"},{\"name\":\"Current_Product_Lists\",\"kind\":\"EntitySet\",\"url\":\"Current_Product_Lists\"},{\"name\":\"Customer_and_Suppliers_by_Cities\",\"kind\":\"EntitySet\",\"url\":\"Customer_and_Suppliers_by_Cities\"},{\"name\":\"Invoices\",\"kind\":\"EntitySet\",\"url\":\"Invoices\"},{\"name\":\"Order_Details_Extendeds\",\"kind\":\"EntitySet\",\"url\":\"Order_Details_Extendeds\"},{\"name\":\"Order_Subtotals\",\"kind\":\"EntitySet\",\"url\":\"Order_Subtotals\"},{\"name\":\"Orders_Qries\",\"kind\":\"EntitySet\",\"url\":\"Orders_Qries\"},{\"name\":\"Product_Sales_for_1997\",\"kind\":\"EntitySet\",\"url\":\"Product_Sales_for_1997\"},{\"name\":\"Products_Above_Average_Prices\",\"kind\":\"EntitySet\",\"url\":\"Products_Above_Average_Prices\"},{\"name\":\"Products_by_Categories\",\"kind\":\"EntitySet\",\"url\":\"Products_by_Categories\"},{\"name\":\"Sales_by_Categories\",\"kind\":\"EntitySet\",\"url\":\"Sales_by_Categories\"},{\"name\":\"Sales_Totals_by_Amounts\",\"kind\":\"EntitySet\",\"url\":\"Sales_Totals_by_Amounts\"},{\"name\":\"Summary_of_Sales_by_Quarters\",\"kind\":\"EntitySet\",\"url\":\"Summary_of_Sales_by_Quarters\"},{\"name\":\"Summary_of_Sales_by_Years\",\"kind\":\"EntitySet\",\"url\":\"Summary_of_Sales_by_Years\"}]}",
    "convertedResponse" : null,
    "statusCode" : 200,
    "responseHeaders" : {
      "Access-Control-Expose-Headers" : [ "DataServiceVersion" ],
      "Expires" : [ "Wed, 15 Jun 2016 09:24:11 GMT" ],
      "Set-Cookie" : [ "ARRAffinity=55bd4497a61c77b5d58c049fb320d7f8123316355b80950f2dc29507c76bd46f;Path=/;Domain=services.odata.org" ],
      "Access-Control-Allow-Methods" : [ "GET" ],
      "Server" : [ "Microsoft-IIS/8.0" ],
      "X-Powered-By" : [ "ASP.NET" ],
      "Cache-Control" : [ "private" ],
      "X-Content-Type-Options" : [ "nosniff" ],
      "X-AspNet-Version" : [ "4.0.30319" ],
      "Access-Control-Allow-Headers" : [ "Accept, Origin, Content-Type, MaxDataServiceVersion" ],
      "Date" : [ "Wed, 15 Jun 2016 09:23:10 GMT" ],
      "Vary" : [ "*" ],
      "Access-Control-Allow-Origin" : [ "*" ],
      "OData-Version" : [ "4.0;" ],
      "Content-Type" : [ "application/json;odata.metadata=minimal;odata.streaming=true;IEEE754Compatible=false;charset=utf-8" ]
    },
    "contentType" : "application/json",
    "cookies" : [ {
      "name" : "ARRAffinity",
      "value" : "55bd4497a61c77b5d58c049fb320d7f8123316355b80950f2dc29507c76bd46f",
      "expiryDate" : null,
      "ports" : null,
      "commentURL" : null,
      "domain" : "services.odata.org",
      "version" : 0,
      "path" : "/",
      "comment" : null,
      "secure" : false,
      "persistent" : false
    } ]
  },
  "redirectEnabled" : true
}