{
  "endpointAddress" : "http://services.odata.org/V4/Northwind/Northwind.svc/Products_Above_Average_Prices",
  "method" : "GET",
  "contentType" : "text/xml",
  "requestBody" : "",
  "authType" : "NONE",
  "headers" : { },
  "queryParams" : { },
  "sampleRestResponse" : {
    "responseBody" : "{\"@odata.context\":\"http://services.odata.org/V4/Northwind/Northwind.svc/$metadata#Products_Above_Average_Prices\",\"value\":[{\"ProductName\":\"Alice Mutton\",\"UnitPrice\":39},{\"ProductName\":\"Camembert Pierrot\",\"UnitPrice\":34},{\"ProductName\":\"Carnarvon Tigers\",\"UnitPrice\":62.5},{\"ProductName\":\"Côte de Blaye\",\"UnitPrice\":263.5},{\"ProductName\":\"Gnocchi di nonna Alice\",\"UnitPrice\":38},{\"ProductName\":\"Gudbrandsdalsost\",\"UnitPrice\":36},{\"ProductName\":\"Gumbär Gummibärchen\",\"UnitPrice\":31.23},{\"ProductName\":\"Ikura\",\"UnitPrice\":31},{\"ProductName\":\"Ipoh Coffee\",\"UnitPrice\":46},{\"ProductName\":\"Manjimup Dried Apples\",\"UnitPrice\":53},{\"ProductName\":\"Mascarpone Fabioli\",\"UnitPrice\":32},{\"ProductName\":\"Mishi Kobe Niku\",\"UnitPrice\":97},{\"ProductName\":\"Mozzarella di Giovanni\",\"UnitPrice\":34.8},{\"ProductName\":\"Northwoods Cranberry Sauce\",\"UnitPrice\":40},{\"ProductName\":\"Perth Pasties\",\"UnitPrice\":32.8},{\"ProductName\":\"Queso Manchego La Pastora\",\"UnitPrice\":38},{\"ProductName\":\"Raclette Courdavault\",\"UnitPrice\":55},{\"ProductName\":\"Rössle Sauerkraut\",\"UnitPrice\":45.6},{\"ProductName\":\"Schoggi Schokolade\",\"UnitPrice\":43.9},{\"ProductName\":\"Sir Rodney's Marmalade\",\"UnitPrice\":81},{\"ProductName\":\"Tarte au sucre\",\"UnitPrice\":49.3},{\"ProductName\":\"Thüringer Rostbratwurst\",\"UnitPrice\":123.79},{\"ProductName\":\"Uncle Bob's Organic Dried Pears\",\"UnitPrice\":30},{\"ProductName\":\"Vegie-spread\",\"UnitPrice\":43.9},{\"ProductName\":\"Wimmers gute Semmelknödel\",\"UnitPrice\":33.25}]}",
    "convertedResponse" : null,
    "statusCode" : 200,
    "responseHeaders" : {
      "Access-Control-Expose-Headers" : [ "DataServiceVersion" ],
      "Expires" : [ "Wed, 15 Jun 2016 09:51:34 GMT" ],
      "Set-Cookie" : [ "ARRAffinity=55bd4497a61c77b5d58c049fb320d7f8123316355b80950f2dc29507c76bd46f;Path=/;Domain=services.odata.org" ],
      "Access-Control-Allow-Methods" : [ "GET" ],
      "Server" : [ "Microsoft-IIS/8.0" ],
      "X-Powered-By" : [ "ASP.NET" ],
      "Cache-Control" : [ "private" ],
      "X-Content-Type-Options" : [ "nosniff" ],
      "X-AspNet-Version" : [ "4.0.30319" ],
      "Access-Control-Allow-Headers" : [ "Accept, Origin, Content-Type, MaxDataServiceVersion" ],
      "Date" : [ "Wed, 15 Jun 2016 09:50:34 GMT" ],
      "Vary" : [ "*" ],
      "Access-Control-Allow-Origin" : [ "*" ],
      "OData-Version" : [ "4.0;" ],
      "Content-Type" : [ "application/json;odata.metadata=minimal;odata.streaming=true;IEEE754Compatible=false;charset=utf-8" ]
    },
    "contentType" : "application/json",
    "cookies" : [ {
      "name" : "ARRAffinity",
      "value" : "55bd4497a61c77b5d58c049fb320d7f8123316355b80950f2dc29507c76bd46f",
      "expiryDate" : null,
      "ports" : null,
      "commentURL" : null,
      "domain" : "services.odata.org",
      "version" : 0,
      "path" : "/",
      "comment" : null,
      "secure" : false,
      "persistent" : false
    } ]
  },
  "redirectEnabled" : true
}